examples/counter/counter.vcd
$date
     Mar 15, 2021       17:31:13
$end

$version
 SystemC 2.3.3-Accellera --- Feb  2 2021 00:23:24
$end

$timescale
     1 ps
$end

$scope module SystemC $end
$var wire    1  aaaaa  clk       $end
$var wire    1  aaaab  reset       $end
$var wire    1  aaaac  enable       $end
$var wire    4  aaaad  counter_out [3:0]  $end
$upscope $end
$enddefinitions  $end

$comment
All initial values are dumped below at time 1e-12 sec = 1 timescale units.
$end

$dumpvars
0aaaaa
0aaaab
0aaaac
b0 aaaad
$end

#2
1aaaaa

#3
0aaaaa

#4
1aaaaa

#5
0aaaaa

#6
1aaaaa

#7
0aaaaa

#8
1aaaaa

#9
0aaaaa

#10
1aaaaa

#11
0aaaaa
1aaaab

#12
1aaaaa

#13
0aaaaa

#14
1aaaaa

#15
0aaaaa

#16
1aaaaa

#17
0aaaaa

#18
1aaaaa

#19
0aaaaa

#20
1aaaaa

#21
0aaaaa

#22
1aaaaa

#23
0aaaaa

#24
1aaaaa

#25
0aaaaa

#26
1aaaaa

#27
0aaaaa

#28
1aaaaa

#29
0aaaaa

#30
1aaaaa

#31
0aaaaa
0aaaab

#32
1aaaaa

#33
0aaaaa

#34
1aaaaa

#35
0aaaaa

#36
1aaaaa

#37
0aaaaa

#38
1aaaaa

#39
0aaaaa

#40
1aaaaa

#41
0aaaaa

#42
1aaaaa

#43
0aaaaa

#44
1aaaaa

#45
0aaaaa

#46
1aaaaa

#47
0aaaaa

#48
1aaaaa

#49
0aaaaa

#50
1aaaaa

#51
0aaaaa
1aaaac

#52
1aaaaa
b1 aaaad

#53
0aaaaa

#54
1aaaaa
b10 aaaad

#55
0aaaaa

#56
1aaaaa
b11 aaaad

#57
0aaaaa

#58
1aaaaa
b100 aaaad

#59
0aaaaa

#60
1aaaaa
b101 aaaad

#61
0aaaaa

#62
1aaaaa
b110 aaaad

#63
0aaaaa

#64
1aaaaa
b111 aaaad

#65
0aaaaa

#66
1aaaaa
b1000 aaaad

#67
0aaaaa

#68
1aaaaa
b1001 aaaad

#69
0aaaaa

#70
1aaaaa
b1010 aaaad

#71
0aaaaa
1aaaab
b0 aaaad

#72
1aaaaa

#73
0aaaaa

#74
1aaaaa

#75
0aaaaa

#76
1aaaaa

#77
0aaaaa

#78
1aaaaa

#79
0aaaaa

#80
1aaaaa

#81
0aaaaa
0aaaab
b1 aaaad

#82
1aaaaa
b10 aaaad

#83
0aaaaa

#84
1aaaaa
b11 aaaad

#85
0aaaaa

#86
1aaaaa
b100 aaaad

#87
0aaaaa

#88
1aaaaa
b101 aaaad

#89
0aaaaa

#90
1aaaaa
b110 aaaad

